<svg width="11" height="6" viewBox="0 0 11 6" fill="none" xmlns="http://www.w3.org/2000/svg">
<path fill-rule="evenodd" clip-rule="evenodd" d="M10.5 4.99999C10.5 5.25599 10.402 5.512 10.207 5.707C9.816 6.098 9.184 6.098 8.793 5.707L5.488 2.40199L2.195 5.58199C1.797 5.96499 1.164 5.95399 0.781005 5.55699C0.398005 5.15899 0.409005 4.52599 0.805005 4.14299L4.805 0.280993C5.198 -0.0980069 5.821 -0.0930067 6.20701 0.292993L10.207 4.29299C10.402 4.48799 10.5 4.74399 10.5 4.99999Z" fill="#231F20"/>
</svg>
