<svg width="19" height="18" viewBox="0 0 19 18" fill="none" xmlns="http://www.w3.org/2000/svg">
<path d="M1.35714 15.12H2.03571C2.03571 16.7081 3.25307 18 4.75 18C6.24693 18 7.46429 16.7081 7.46429 15.12H10.8571C10.8571 16.7081 12.0745 18 13.5714 18C15.0684 18 16.2857 16.7081 16.2857 15.12H17.6429C18.3911 15.12 19 14.4742 19 13.68V8.64C19 8.46816 18.9423 8.30184 18.8362 8.17128L15.1717 3.63408C14.784 3.15504 14.2208 2.88 13.6257 2.88H10.8571V0.72C10.8571 0.32232 10.5536 0 10.1786 0C3.61973 0 5.50819 0 0.678571 0C0.303548 0 0 0.32232 0 0.72C0 0.99192 0 13.272 0 13.68C0 14.4742 0.608905 15.12 1.35714 15.12ZM4.75 16.56C4.00176 16.56 3.39286 15.9142 3.39286 15.12C3.39286 14.3933 3.9762 13.68 4.75 13.68C5.5195 13.68 6.10714 14.3885 6.10714 15.12C6.10714 15.9142 5.49824 16.56 4.75 16.56ZM13.5714 16.56C12.8232 16.56 12.2143 15.9142 12.2143 15.12C12.2143 14.395 12.7954 13.68 13.5714 13.68C14.3414 13.68 14.9286 14.3909 14.9286 15.12C14.9286 15.9142 14.3197 16.56 13.5714 16.56ZM4.75 1.44H6.10714V3.15504L5.73212 2.95608C5.54121 2.8548 5.31593 2.8548 5.12502 2.95608L4.75 3.15504V1.44ZM1.35714 1.44H3.39286V4.32C3.39286 4.5696 3.51477 4.8012 3.71495 4.93248C3.91445 5.06352 4.16417 5.0748 4.37498 4.96416L5.42857 4.40496L6.48217 4.96392C6.69863 5.07792 6.94699 5.0604 7.14219 4.93224C7.34237 4.8012 7.46429 4.5696 7.46429 4.32V1.44H9.5V4.32V10.08H1.35714V1.44ZM1.35714 11.52H10.1786C10.5536 11.52 10.8571 11.1977 10.8571 10.8V4.32H13.6257C13.8245 4.32 14.012 4.41144 14.1412 4.57128L17.6429 8.9064V13.68H15.9134C15.4278 12.7855 14.4943 12.24 13.5714 12.24C12.6241 12.24 11.7029 12.8081 11.2295 13.68H7.09198C6.62761 12.8249 5.71448 12.24 4.75 12.24C3.80271 12.24 2.88144 12.8081 2.40802 13.68H1.35714V11.52Z" fill="#2B2D42"/>
</svg>
